<?xml version="1.0" encoding="utf-8"?>
<!-- Generator: Adobe Illustrator 22.1.0, SVG Export Plug-In . SVG Version: 6.00 Build 0)  -->
<svg version="1.1" id="Layer_1" xmlns="http://www.w3.org/2000/svg" xmlns:xlink="http://www.w3.org/1999/xlink" x="0px" y="0px"
	 viewBox="0 0 9 15" style="enable-background:new 0 0 9 15;" xml:space="preserve">
<style type="text/css">
	.st0{fill:#35444E;}
</style>
<path class="st0" d="M8.6,6.4l-6-6C2-0.1,1-0.1,0.4,0.4s-0.6,1.5,0,2.1l4.9,4.9l-4.9,4.9c-0.6,0.6-0.6,1.5,0,2.1
	C0.7,14.9,1.1,15,1.5,15s0.8-0.1,1.1-0.4l6-6C9.1,8,9.1,7,8.6,6.4z"/>
</svg>
