<svg xmlns="http://www.w3.org/2000/svg" width="24" height="24" viewBox="0 0 24 24">
  <g id="channel_detail_play" transform="translate(-116 -351)">
    <rect id="Rectangle_11885" data-name="Rectangle 11885" width="24" height="24" transform="translate(116 351)" fill="#909090" opacity="0.004"/>
    <path id="Subtraction_22" data-name="Subtraction 22" d="M6.482,12.853A6.461,6.461,0,0,1,0,6.427a6.482,6.482,0,0,1,12.963,0A6.461,6.461,0,0,1,6.482,12.853ZM4.568,3.2a.736.736,0,0,0-.748.722V9.977a.7.7,0,0,0,.115.385.75.75,0,0,0,.634.338.764.764,0,0,0,.4-.111L9.952,7.56a.738.738,0,0,0,.235-.227.7.7,0,0,0,.1-.541.719.719,0,0,0-.332-.455L4.966,3.313A.77.77,0,0,0,4.568,3.2Z" transform="translate(121.554 359.772)" fill="#fff"/>
    <path id="Path_10202" data-name="Path 10202" d="M24.166,14.149s.226-1.539.3-2.492a8.386,8.386,0,0,0,0-2.111A11.273,11.273,0,0,0,13.6,0h-.152A11.088,11.088,0,0,0,2.576,9.546a13.953,13.953,0,0,0,1.045,6.425c.13.262,1.513-.232,1.349-.554A9.608,9.608,0,0,1,13.452,1.456h.135a9.608,9.608,0,0,1,8.482,13.961c-.164.322,1.219.816,1.349.554" transform="translate(114.473 353.375)" fill="#fff"/>
    <path id="Path_10203" data-name="Path 10203" d="M25.7-8.615a1.378,1.378,0,0,1,2.366.79A7.073,7.073,0,0,1,27.2-2.941a1.3,1.3,0,0,1-2.307-.31C25.994-4.776,25.972-7.55,25.7-8.615Z" transform="translate(109.539 372.687)" fill="#fff"/>
    <path id="Path_10204" data-name="Path 10204" d="M27.043-8.682a1.379,1.379,0,0,0-2.366.79,7.072,7.072,0,0,0,.873,4.885,1.3,1.3,0,0,0,2.307-.31C26.752-4.843,26.774-7.617,27.043-8.682Z" transform="translate(93.85 372.712)" fill="#fff"/>
  </g>
</svg>
