<svg xmlns="http://www.w3.org/2000/svg" xmlns:xlink="http://www.w3.org/1999/xlink" width="24" height="24" viewBox="0 0 24 24">
  <defs>
    <clipPath id="clip-path">
      <path id="Path_5537" data-name="Path 5537" d="M0,0H24V-24H0Z" fill="none"/>
    </clipPath>
    <clipPath id="clip-path-2">
      <path id="Path_5540" data-name="Path 5540" d="M13.833-17.7a3.875,3.875,0,0,0-3.87,3.87,3.875,3.875,0,0,0,3.87,3.87,3.875,3.875,0,0,0,3.87-3.87A3.875,3.875,0,0,0,13.833-17.7Zm.645,5.16h-1.29v-2.58h1.29Z" fill="#eaa201"/>
    </clipPath>
    <clipPath id="clip-path-3">
      <path id="Path_5539" data-name="Path 5539" d="M-786,5073H294V-750H-786Z" fill="#eaa201"/>
    </clipPath>
    <clipPath id="clip-path-4">
      <path id="Path_5543" data-name="Path 5543" d="M19.13-21.778a2.651,2.651,0,0,0-2.648,2.648,2.651,2.651,0,0,0,2.648,2.648,2.651,2.651,0,0,0,2.648-2.648A2.651,2.651,0,0,0,19.13-21.778Z" fill="#eaa201"/>
    </clipPath>
    <clipPath id="clip-path-6">
      <path id="Path_5546" data-name="Path 5546" d="M13.426-23a1.836,1.836,0,0,0-1.833,1.833,1.836,1.836,0,0,0,1.833,1.833,1.836,1.836,0,0,0,1.833-1.833A1.836,1.836,0,0,0,13.426-23Z" fill="#eaa201"/>
    </clipPath>
    <clipPath id="clip-path-8">
      <path id="Path_5549" data-name="Path 5549" d="M19.739-8.316,16.41-4.841H10.238v-1.28h5.586a2.57,2.57,0,0,0-2.578-2.561H10.024a3.225,3.225,0,0,0-2.578-1.28A3.224,3.224,0,0,0,5.079-8.935,4.45,4.45,0,0,1,1.849-7.4H1V-1H17.327L23-8.043A2.107,2.107,0,0,0,19.739-8.316Z" fill="#ffffff"/>
    </clipPath>
    <clipPath id="clip-path-9">
      <path id="Path_5548" data-name="Path 5548" d="M-786,5073H294V-750H-786Z" fill="#ffffff"/>
    </clipPath>
  </defs>
  <g id="earn_money" transform="translate(0 24)">
    <g id="Group_7843" data-name="Group 7843" clip-path="url(#clip-path)">
      <path id="Path_5536" data-name="Path 5536" d="M-5-29H29V5H-5Z" fill="rgba(215,215,215,0)"/>
    </g>
    <g id="Group_7845" data-name="Group 7845" clip-path="url(#clip-path-2)">
      <g id="Group_7844" data-name="Group 7844" clip-path="url(#clip-path-3)">
        <path id="Path_5538" data-name="Path 5538" d="M4.963-22.7H22.7V-4.963H4.963Z" fill="#eaa201"/>
      </g>
    </g>
    <g id="Group_7847" data-name="Group 7847" clip-path="url(#clip-path-4)">
      <g id="Group_7846" data-name="Group 7846" clip-path="url(#clip-path-3)">
        <path id="Path_5541" data-name="Path 5541" d="M11.481-26.778h15.3v15.3h-15.3Z" fill="#eaa201"/>
      </g>
    </g>
    <g id="Group_7849" data-name="Group 7849" clip-path="url(#clip-path-6)">
      <g id="Group_7848" data-name="Group 7848" clip-path="url(#clip-path-3)">
        <path id="Path_5544" data-name="Path 5544" d="M6.593-28H20.259v13.667H6.593Z" fill="#eaa201"/>
      </g>
    </g>
    <g id="Group_7851" data-name="Group 7851" clip-path="url(#clip-path-8)">
      <g id="Group_7850" data-name="Group 7850" clip-path="url(#clip-path-9)">
        <path id="Path_5547" data-name="Path 5547" d="M-4-14.963H28V4H-4Z" fill="#ffffff"/>
      </g>
    </g>
  </g>
</svg>
