<svg xmlns="http://www.w3.org/2000/svg" width="24" height="24" viewBox="0 0 24 24">
  <g id="edit-tools" transform="translate(0 -0.002)">
    <g id="Group_2858" data-name="Group 2858" transform="translate(0 0.002)">
      <g id="Group_2857" data-name="Group 2857" transform="translate(0 0)">
        <path id="Path_1238" data-name="Path 1238" d="M18.244,82.58a.575.575,0,0,0-.791,0L6.813,93.229a.56.56,0,0,0,.145.9l.874.437v1.471L5.155,96.8l-2.7-2.7.765-2.679h1.47l.437.874a.559.559,0,0,0,.9.145l10.64-10.649a.56.56,0,0,0,0-.792L14.6,78.937a.559.559,0,0,0-.4-.164h0a.559.559,0,0,0-.4.166L2.4,90.463c-.006.006-.005.014-.011.02a.547.547,0,0,0-.13.221l-.971,3.4L.021,98.542a.56.56,0,0,0,.538.714.569.569,0,0,0,.154-.021l4.433-1.267L8.544,97c.01,0,.017-.011.027-.014a1.032,1.032,0,0,0,.189-.111c.007-.006.017-.009.024-.016L20.3,85.432a.56.56,0,0,0,0-.793Z" transform="translate(0 -75.256)"/>
        <path id="Path_1239" data-name="Path 1239" d="M299.038,4,295.682.637a2.288,2.288,0,0,0-3.166,0l-2.049,2.07a.56.56,0,0,0,0,.79l5.711,5.716a.559.559,0,0,0,.789,0l2.069-2.053a2.24,2.24,0,0,0,0-3.167Z" transform="translate(-275.694 -0.002)"/>
      </g>
    </g>
  </g>
</svg>
