<svg id="edit-tools" xmlns="http://www.w3.org/2000/svg" width="32" height="32" viewBox="0 0 32 32">
  <path id="Path" d="M23.675,4.936a.747.747,0,0,0-1.026,0L8.841,18.743a.726.726,0,0,0,.189,1.163l1.134.567V22.38l-3.473.993L3.185,19.868l.993-3.473H6.085l.567,1.134a.727.727,0,0,0,.533.392.728.728,0,0,0,.63-.2L21.622,3.909a.726.726,0,0,0,0-1.027L18.953.213A.725.725,0,0,0,18.439,0h0a.726.726,0,0,0-.514.215L3.114,15.158c-.007.007-.007.018-.014.026a.71.71,0,0,0-.169.286l-1.26,4.41L.028,25.633a.726.726,0,0,0,.7.925.738.738,0,0,0,.2-.028l5.753-1.643,4.41-1.26c.013,0,.022-.014.035-.018a1.342,1.342,0,0,0,.246-.144c.009-.008.022-.011.031-.02L26.343,8.634a.726.726,0,0,0,0-1.029Z" transform="translate(0 5.442)" fill="#fff"/>
  <path id="Path-2" data-name="Path" d="M11.339,5.193,6.982.826a2.967,2.967,0,0,0-4.11,0L.211,3.519a.729.729,0,0,0,0,1.027l7.415,7.431a.725.725,0,0,0,1.025,0l2.687-2.669a2.915,2.915,0,0,0,0-4.117Z" transform="translate(19.81)" fill="#fff"/>
</svg>
