<?xml version="1.0" encoding="utf-8"?>
<!-- Generator: Adobe Illustrator 23.0.1, SVG Export Plug-In . SVG Version: 6.00 Build 0)  -->
<svg version="1.1" id="Layer_1" xmlns="http://www.w3.org/2000/svg" xmlns:xlink="http://www.w3.org/1999/xlink" x="0px" y="0px"
	 viewBox="0 0 24 24" style="enable-background:new 0 0 24 24;" xml:space="preserve">
<style type="text/css">
	.st0{fill:#999999;}
</style>
<g>
	<g>
		<path class="st0" d="M11.15,15.98c-0.03-0.01-0.06-0.01-0.1-0.01c-0.23-0.02-0.45-0.05-0.67-0.09c-0.31-0.05-0.61-0.12-0.91-0.21
			c-0.34-0.1-0.66-0.21-0.98-0.35c-0.29-0.12-0.57-0.26-0.84-0.42c-0.33-0.19-0.65-0.4-0.95-0.63c-0.18-0.13-0.35-0.28-0.51-0.43
			c-0.02-0.02-0.05-0.04-0.06-0.07c-0.01-0.02-0.02-0.04-0.02-0.06c0-0.06,0.04-0.1,0.1-0.1c0.03,0,0.06,0.01,0.09,0.03
			c0.12,0.07,0.25,0.14,0.38,0.21c0.36,0.19,0.73,0.36,1.11,0.51c0.41,0.16,0.83,0.3,1.25,0.41c0.28,0.07,0.55,0.14,0.83,0.19
			c0.23,0.04,0.45,0.08,0.68,0.11c0.15,0.02,0.3,0.04,0.45,0.05c0.12,0.01,0.24,0.02,0.35,0.03c0.14,0.01,0.27,0.01,0.41,0.02
			c0.14,0.01,0.29,0.01,0.43,0c0.17,0,0.34-0.01,0.51-0.02c0.25-0.02,0.51-0.04,0.76-0.08c0.47-0.06,0.94-0.16,1.41-0.28
			c0.35-0.09,0.7-0.2,1.04-0.33c0.16-0.06,0.32-0.12,0.48-0.19c0.04-0.02,0.09-0.03,0.14-0.02c0.07,0.01,0.12,0.05,0.14,0.12
			c0.02,0.07-0.01,0.13-0.07,0.18c-0.05,0.04-0.1,0.08-0.15,0.11c-0.21,0.14-0.42,0.27-0.65,0.39c-0.33,0.18-0.68,0.32-1.03,0.45
			c-0.38,0.13-0.77,0.24-1.17,0.32c-0.25,0.05-0.5,0.09-0.75,0.12c-0.08,0.01-0.16,0.02-0.24,0.02c-0.01,0-0.02,0-0.03,0.01
			C12.12,15.98,11.64,15.98,11.15,15.98z"/>
		<path class="st0" d="M6.25,8.02c0.03,0.01,0.06,0.01,0.09,0.01c0.1,0.01,0.2,0.03,0.29,0.06c0.02,0,0.04,0.01,0.05,0.02
			C6.72,8.13,6.74,8.16,6.75,8.2c0,0.02,0.01,0.05,0.01,0.07c0,0.05,0,0.11,0,0.16c0,0.02,0,0.04-0.01,0.05
			C6.74,8.53,6.71,8.56,6.67,8.56c-0.06,0-0.11-0.01-0.17-0.02c-0.15-0.02-0.29-0.03-0.44,0C6.02,8.55,5.97,8.57,5.93,8.59
			C5.88,8.63,5.84,8.67,5.82,8.73C5.8,8.78,5.78,8.84,5.78,8.9c-0.01,0.2,0,0.4-0.01,0.6c0,0.03,0,0.04,0.04,0.04
			c0.15,0,0.29,0,0.44,0c0.11,0,0.21,0,0.32,0c0.01,0,0.02,0,0.04,0c0.06,0,0.11,0.04,0.11,0.1c0,0.09,0,0.18,0,0.27
			c0,0.06-0.03,0.09-0.09,0.1c-0.02,0-0.04,0-0.06,0c-0.25,0-0.5,0-0.74,0c-0.06,0-0.06,0-0.06,0.05c0,0.8,0,1.61,0,2.41
			c0,0.02,0,0.04,0,0.06c0,0.05-0.03,0.08-0.08,0.09c-0.02,0-0.03,0.01-0.05,0.01c-0.12,0-0.23,0-0.35,0c-0.01,0-0.02,0-0.03,0
			c-0.06-0.01-0.09-0.04-0.1-0.1c0-0.02,0-0.03,0-0.05c0-0.8,0-1.6,0-2.4c0-0.07,0-0.06-0.06-0.06c-0.12,0-0.25,0-0.37,0
			c-0.02,0-0.04,0-0.06,0C4.64,10.01,4.62,9.99,4.6,9.96c0-0.01-0.01-0.02-0.02-0.02c0-0.08,0-0.16,0-0.24
			c0.01,0,0.01-0.01,0.01-0.02c0.01-0.03,0.03-0.05,0.06-0.06C4.68,9.61,4.7,9.6,4.72,9.6c0.13-0.02,0.27-0.03,0.4-0.05
			C5.16,9.54,5.16,9.54,5.16,9.5c0-0.14,0-0.29,0-0.43c0-0.06,0-0.12,0.01-0.18C5.18,8.77,5.2,8.65,5.24,8.54
			C5.3,8.39,5.4,8.26,5.54,8.17C5.66,8.1,5.8,8.06,5.94,8.04c0.03,0,0.06,0,0.09-0.01C6.1,8.02,6.18,8.02,6.25,8.02z"/>
		<path class="st0" d="M19.41,9.65c-0.05,0.15-0.12,0.3-0.18,0.46c-0.19,0.48-0.38,0.97-0.58,1.45c-0.12,0.31-0.25,0.62-0.37,0.93
			c-0.01,0.03-0.02,0.05-0.04,0.08c-0.02,0.03-0.05,0.05-0.08,0.06c-0.02,0.01-0.05,0.01-0.07,0.01c-0.11,0-0.22,0-0.34,0
			c0,0-0.01,0-0.01,0c-0.08,0-0.13-0.03-0.16-0.11c-0.04-0.11-0.09-0.21-0.13-0.32c-0.1-0.26-0.21-0.52-0.31-0.77
			c-0.14-0.36-0.28-0.71-0.43-1.07c-0.08-0.2-0.16-0.4-0.24-0.6c-0.01-0.03-0.02-0.06-0.03-0.09c-0.01-0.02-0.01-0.04-0.01-0.06
			c0-0.05,0.03-0.08,0.07-0.08c0.01,0,0.02,0,0.03,0c0.12,0,0.25,0,0.37,0c0.03,0,0.05,0,0.08,0.01c0.03,0.01,0.05,0.02,0.06,0.05
			c0.02,0.03,0.04,0.07,0.05,0.11c0.07,0.19,0.13,0.37,0.2,0.56c0.15,0.41,0.29,0.83,0.44,1.24c0.06,0.17,0.12,0.35,0.18,0.52
			c0,0.01,0.01,0.02,0.01,0.03c0.01-0.01,0.01-0.02,0.02-0.03c0.08-0.24,0.17-0.47,0.25-0.71c0.15-0.43,0.31-0.87,0.46-1.3
			c0.04-0.1,0.07-0.2,0.11-0.3c0.01-0.04,0.03-0.07,0.04-0.1c0.02-0.05,0.06-0.08,0.12-0.08c0.03,0,0.06,0,0.09,0c0.1,0,0.2,0,0.3,0
			c0.02,0,0.04,0,0.06,0.01c0.02,0.01,0.03,0.03,0.03,0.04C19.41,9.61,19.41,9.63,19.41,9.65z"/>
		<path class="st0" d="M12.09,11.22c-0.31,0-0.62,0-0.93,0c-0.06,0-0.06,0-0.05,0.06c0.01,0.08,0.01,0.15,0.03,0.22
			c0.02,0.12,0.06,0.24,0.13,0.35c0.1,0.17,0.25,0.27,0.44,0.33c0.16,0.05,0.32,0.06,0.48,0.05c0.22,0,0.43-0.04,0.64-0.1
			c0.05-0.01,0.09-0.03,0.14-0.04c0.02-0.01,0.04-0.01,0.05-0.01c0.05-0.01,0.08,0.02,0.09,0.06c0,0.01,0.01,0.03,0.01,0.04
			c0,0.06,0,0.13,0,0.19c0,0.07-0.03,0.12-0.09,0.15c-0.04,0.02-0.09,0.04-0.14,0.06c-0.18,0.06-0.37,0.1-0.56,0.12
			c-0.14,0.02-0.29,0.02-0.43,0.01c-0.23-0.01-0.46-0.06-0.67-0.16c-0.21-0.11-0.37-0.26-0.49-0.47c-0.1-0.18-0.16-0.38-0.19-0.59
			c-0.03-0.17-0.04-0.34-0.03-0.51c0.01-0.22,0.04-0.44,0.11-0.64c0.08-0.22,0.2-0.42,0.38-0.58c0.14-0.13,0.3-0.21,0.48-0.26
			c0.13-0.04,0.26-0.05,0.39-0.06c0.14-0.01,0.28,0,0.42,0.02c0.19,0.03,0.36,0.1,0.5,0.23c0.12,0.1,0.2,0.22,0.27,0.36
			c0.07,0.15,0.1,0.31,0.12,0.48c0.01,0.09,0.01,0.17,0.01,0.26c0,0.11-0.01,0.21-0.03,0.32c-0.02,0.09-0.05,0.12-0.14,0.12
			C12.71,11.22,12.4,11.22,12.09,11.22z M11.87,10.81c0.24,0,0.48,0,0.72,0c0.04,0,0.05,0,0.05-0.04c0-0.05,0-0.09,0-0.14
			c0-0.1-0.01-0.19-0.04-0.28c-0.06-0.22-0.2-0.36-0.43-0.42c-0.1-0.02-0.21-0.03-0.32-0.02c-0.1,0.01-0.2,0.03-0.29,0.07
			c-0.17,0.08-0.28,0.21-0.35,0.38c-0.06,0.13-0.08,0.27-0.09,0.41c0,0.02,0,0.03,0.02,0.03c0.01,0,0.02,0,0.03,0
			C11.4,10.81,11.63,10.81,11.87,10.81z"/>
		<path class="st0" d="M14.58,10.98c0-0.3,0-0.61,0-0.91c0-0.06,0-0.06-0.05-0.06c-0.12,0-0.24,0-0.37,0c-0.02,0-0.03,0-0.05,0
			c-0.05-0.01-0.09-0.04-0.09-0.1c0-0.07,0-0.13,0-0.2c0-0.05,0.03-0.08,0.08-0.1c0.05-0.02,0.1-0.02,0.15-0.03
			c0.11-0.01,0.21-0.03,0.32-0.04c0.03,0,0.03-0.01,0.04-0.04c0.01-0.05,0.01-0.1,0.02-0.15c0.01-0.11,0.02-0.22,0.04-0.34
			c0.01-0.08,0.02-0.15,0.02-0.23c0.01-0.08,0.05-0.12,0.13-0.12c0.09,0,0.17,0,0.26,0c0.01,0,0.02,0,0.03,0
			c0.05,0.01,0.09,0.04,0.1,0.1c0,0.01,0,0.03,0,0.04c0,0.22,0,0.45,0,0.67c0,0.05,0,0.05,0.06,0.05c0.23,0,0.47,0,0.7,0
			c0.01,0,0.02,0,0.04,0c0.07,0,0.11,0.03,0.12,0.11c0,0.01,0,0.03,0,0.04c0,0.06,0,0.12,0,0.19c0,0.01,0,0.02,0,0.03
			c-0.01,0.08-0.05,0.12-0.13,0.12c-0.14,0-0.28,0-0.43,0c-0.1,0-0.21,0-0.31,0c-0.04,0-0.05,0-0.05,0.05c0,0.46,0,0.93,0,1.39
			c0,0.11,0,0.22,0,0.33c0,0.06,0.01,0.12,0.02,0.17c0.03,0.1,0.09,0.17,0.19,0.19c0.1,0.03,0.21,0.03,0.32,0.03
			c0.1-0.01,0.2-0.03,0.3-0.04c0.02,0,0.03,0,0.05,0c0.03,0.01,0.05,0.02,0.06,0.06c0,0.02,0.01,0.04,0.01,0.06
			c0,0.06,0,0.12,0,0.18c0,0.01,0,0.01,0,0.02c-0.01,0.09-0.04,0.13-0.12,0.16c-0.09,0.03-0.19,0.05-0.29,0.06
			c-0.11,0.01-0.21,0.02-0.32,0.02c-0.13-0.01-0.26-0.02-0.39-0.08c-0.18-0.07-0.3-0.21-0.37-0.39c-0.05-0.13-0.06-0.26-0.06-0.39
			C14.59,11.54,14.58,11.26,14.58,10.98z"/>
		<path class="st0" d="M9.22,9.97c0.01,0,0.02-0.01,0.03-0.02c0.09-0.1,0.2-0.19,0.31-0.27c0.14-0.09,0.3-0.15,0.47-0.17
			c0.09-0.01,0.18-0.01,0.27,0c0.08,0.01,0.11,0.05,0.11,0.12c0,0.1,0,0.21,0,0.31c0,0.01,0,0.02,0,0.03
			c-0.01,0.05-0.04,0.08-0.09,0.08c-0.04,0-0.08,0-0.11,0c-0.26-0.02-0.5,0.01-0.74,0.13c-0.06,0.03-0.13,0.07-0.18,0.12
			c-0.03,0.02-0.04,0.04-0.04,0.08c0,0.25,0,0.5,0,0.75c0,0.44,0,0.89,0,1.33c0,0.02,0,0.04,0,0.06c-0.01,0.06-0.04,0.09-0.1,0.09
			c-0.01,0-0.02,0-0.03,0c-0.11,0-0.22,0-0.34,0c0,0-0.01,0-0.01,0c-0.08,0-0.12-0.04-0.12-0.12c0-0.01,0-0.03,0-0.04
			c0-0.93,0-1.86,0-2.78c0-0.02,0-0.05,0.01-0.07c0.01-0.05,0.04-0.08,0.1-0.08c0.01,0,0.03,0,0.04,0c0.08,0,0.16,0,0.24,0
			c0.01,0,0.03,0,0.04,0c0.05,0.01,0.08,0.03,0.1,0.08c0.01,0.03,0.01,0.06,0.02,0.09C9.19,9.79,9.2,9.87,9.21,9.96
			C9.21,9.96,9.22,9.97,9.22,9.97z"/>
		<path class="st0" d="M7.85,11.08c0,0.47,0,0.94,0,1.4c0,0.02,0,0.04,0,0.06c-0.01,0.05-0.04,0.07-0.08,0.08c-0.02,0-0.03,0-0.05,0
			c-0.11,0-0.23,0-0.34,0c-0.02,0-0.04,0-0.07-0.01c-0.04-0.01-0.06-0.04-0.06-0.08c0-0.02-0.01-0.05-0.01-0.07
			c0-0.93,0-1.86,0-2.79c0-0.02,0-0.04,0.01-0.07c0.01-0.05,0.04-0.08,0.1-0.09c0.02,0,0.04,0,0.06,0c0.1,0,0.21,0,0.31,0
			c0.01,0,0.03,0,0.04,0c0.05,0,0.09,0.04,0.1,0.09c0,0.02,0,0.04,0,0.06C7.85,10.15,7.85,10.61,7.85,11.08z"/>
		<path class="st0" d="M16.9,13.38c0.19,0,0.38,0.02,0.57,0.07c0.05,0.01,0.11,0.03,0.16,0.06c0.03,0.02,0.06,0.05,0.07,0.08
			c0.01,0.03,0.02,0.06,0.02,0.1c0,0.07,0,0.13,0,0.2c-0.02,0.19-0.06,0.38-0.12,0.56c-0.04,0.12-0.08,0.23-0.13,0.34
			c-0.07,0.16-0.16,0.31-0.27,0.45c-0.07,0.09-0.15,0.17-0.23,0.24c-0.02,0.02-0.05,0.04-0.08,0.05c-0.07,0.02-0.11-0.02-0.1-0.09
			c0.01-0.02,0.01-0.05,0.02-0.07c0.08-0.21,0.16-0.42,0.23-0.63c0.05-0.14,0.09-0.28,0.11-0.43c0.01-0.08,0.03-0.17,0.01-0.25
			c-0.01-0.08-0.05-0.13-0.12-0.16c-0.06-0.03-0.13-0.04-0.19-0.05c-0.14-0.02-0.28-0.02-0.42-0.01c-0.15,0.01-0.3,0.02-0.44,0.03
			c-0.11,0.01-0.22,0.02-0.33,0.04c-0.02,0-0.05,0-0.07,0c-0.04-0.01-0.05-0.04-0.05-0.08c0.01-0.03,0.03-0.06,0.05-0.08
			c0.03-0.02,0.06-0.04,0.09-0.06c0.22-0.14,0.47-0.22,0.73-0.27c0.12-0.02,0.23-0.03,0.35-0.04C16.8,13.38,16.85,13.38,16.9,13.38z
			"/>
		<path class="st0" d="M7.16,8.61c0-0.08,0.02-0.15,0.06-0.22c0.06-0.09,0.15-0.13,0.26-0.14c0.06-0.01,0.12,0,0.18,0.01
			C7.81,8.3,7.9,8.41,7.92,8.55c0.01,0.06,0.01,0.12-0.01,0.18C7.88,8.88,7.76,8.98,7.6,8.99c-0.05,0-0.1,0-0.15,0
			C7.28,8.95,7.17,8.82,7.16,8.64C7.16,8.63,7.16,8.63,7.16,8.61z"/>
	</g>
	<path class="st0" d="M18.95,23H5.05C2.82,23,1,21.18,1,18.95V5.05C1,2.82,2.82,1,5.05,1h13.89C21.18,1,23,2.82,23,5.05v13.89
		C23,21.18,21.18,23,18.95,23z M5.05,2.16c-1.6,0-2.89,1.3-2.89,2.89v13.89c0,1.6,1.3,2.89,2.89,2.89h13.89
		c1.6,0,2.89-1.3,2.89-2.89V5.05c0-1.6-1.3-2.89-2.89-2.89H5.05z"/>
</g>
</svg>
