<svg xmlns="http://www.w3.org/2000/svg" width="33.043" height="20.232" viewBox="0 0 33.043 20.232">
  <rect id="Rectangle_1581" data-name="Rectangle 1581" width="37" height="2" transform="translate(33.043 1.732) rotate(150)" fill="#ff0303"/>
</svg>
