<?xml version="1.0" encoding="UTF-8"?>
<svg width="44px" height="40px" viewBox="0 0 24 24" version="1.1" xmlns="http://www.w3.org/2000/svg" xmlns:xlink="http://www.w3.org/1999/xlink">
    <title>device</title>
    <g id="Final-style-GUI" stroke="none" stroke-width="1" fill="none" fill-rule="evenodd">
        <g id="icons-set" transform="translate(-579.000000, -932.000000)">
            <g id="device" transform="translate(579.000000, 932.000000)">
                <rect id="Rectangle" fill="#D51F53" opacity="0" x="0" y="0" width="44" height="40"></rect>
                <path d="M21,4 C21.5522847,4 22,4.44771525 22,5 L22,15 C22,15.5522847 21.5522847,16 21,16 L21,8.5 C21,7.67157288 20.3284271,7 19.5,7 L19.5,7 L10.5,7 C9.67157288,7 9,7.67157288 9,8.5 L9,8.5 L9,9 L8.5,9 C7.72030388,9 7.07955132,9.59488808 7.00686658,10.35554 L7,10.5 L7,16 L3,16 C2.44771525,16 2,15.5522847 2,15 L2,5 C2,4.44771525 2.44771525,4 3,4 L21,4 Z" id="Combined-Shape" fill="#D51F53" opacity="0.3"></path>
                <path d="M13.8,23 L8.2,23 C7.5372583,23 7,22.4627417 7,21.8 L7,18.999 L5.5,19 C5.22385763,19 5,18.7761424 5,18.5 C5,18.2238576 5.22385763,18 5.5,18 L7,17.999 L7,17 L3,17 C1.8954305,17 1,16.1045695 1,15 L1,5 C1,3.8954305 1.8954305,3 3,3 L21,3 C22.1045695,3 23,3.8954305 23,5 L23,15 C23,16.1045695 22.1045695,17 21,17 L21,20.8 C21,21.4627417 20.4627417,22 19.8,22 L15,22 L15,21.8 C15,22.4627417 14.4627417,23 13.8,23 Z M9,10 L8.5,10 C8.22385763,10 8,10.2238576 8,10.5 L8,10.5 L8,21.5 C8,21.7761424 8.22385763,22 8.5,22 L8.5,22 L13.5,22 C13.7761424,22 14,21.7761424 14,21.5 L14,21.5 L14,10.5 C14,10.2238576 13.7761424,10 13.5,10 L13.5,10 L13,10 L13,10 C12.6891174,10.2280971 12.618021,10.284893 12.5,10.5209351 C12.4819314,10.5570722 12.4680122,10.593332 12.4582423,10.6297145 C12.3995422,10.8481473 12.2015325,11 11.9753499,11 L10.0263672,11 C9.80370102,11.0000206 9.60786469,10.8527839 9.5460201,10.6388786 C9.53510248,10.6011172 9.51976245,10.5624741 9.5,10.5229492 C9.36753125,10.2580117 9.31398228,10.2328927 9,10 Z M12.95,20.9 C13.1432997,20.9 13.3,21.0567003 13.3,21.25 C13.3,21.4432997 13.1432997,21.6 12.95,21.6 L9.45,21.6 C9.25670034,21.6 9.1,21.4432997 9.1,21.25 C9.1,21.0567003 9.25670034,20.9 9.45,20.9 L12.95,20.9 Z M3,13.6666667 C3.73637967,13.6666667 4.33333333,14.2636203 4.33333333,15 L3.66666667,15 C3.66666667,14.6318102 3.36818983,14.3333333 3,14.3333333 L3,13.6666667 Z M3,12.3333333 C4.47275933,12.3333333 5.66666667,13.5272407 5.66666667,15 L5,15 C5,13.8954305 4.1045695,13 3,13 L3,12.3333333 Z M3,11 C5.209139,11 7,12.790861 7,15 L6.33333333,15 C6.33333333,13.1590508 4.84094917,11.6666667 3,11.6666667 L3,11 Z M15,21 L20,21 L20,8 L10,8 L10,9 L13.8,9 C14.4627417,9 15,9.5372583 15,10.2 L15,21 Z M21,16 C21.5128358,16 21.9355072,15.6139598 21.9932723,15.1166211 L22,15 L22,5 C22,4.44771525 21.5522847,4 21,4 L3,4 C2.48716416,4 2.06449284,4.38604019 2.00672773,4.88337887 L2,5 L2,15 C2,15.5128358 2.38604019,15.9355072 2.88337887,15.9932723 L3,16 L7,16 L7,10.2 C7,9.5372583 7.5372583,9 8.2,9 L9,9 L9,8.2 C9,7.5372583 9.5372583,7 10.2,7 L19.8,7 C20.4627417,7 21,7.5372583 21,8.2 L21,16 Z" id="Combined-Shape" fill="#D51F53"></path>
            </g>
        </g>
    </g>
</svg>